{
    "type": "runner_config",
    "app": "broker",
    "name": "time_broker",
    "executable": "/pizza/pizza-broker",
    "encryption": true,
    "addr": "tcp://127.0.0.1:11500",
    "keys": {
        "broker_private_key": "^fHLnyB}H<Xv[nPYta.Jyi72ko?$fv[qar{5ss>4\u0000",
        "broker_public_key": "]9G/ZCQ$z9qMCH>y!WJgDz?ozb/wby[Z}WoKpu*H\u0000"
    }
}